2400986213622843460607055253615287849400
82994336321068252266
-214373964646171571841497313852383464440
89216972249377182891
-122432658024131350058601323091027897468
80728373169243111052
-108799870567900213359019571742160896092
123274229119631968099
45383809315015020975
2638792420882129892160434844570879648204
-47203853928178774949869900946863012690
14532077081609608751
-266639129427075386189350047771630366841
-390838254463993376421099559596347355849
71977539793853330627
55064667749679112333
-16126211071564351249
2606215740848054485121682449259092910504
38687119655030881690
2072381390167750702074836382594280502088
131872447832865389846
69405185349878621805
458233932923014005711490913166988680072
15478930504901699279
65411400335627921779
5221244109455232850709563641900507136800
-55228894679105954639
94319395112313638014
-7636496862746384219
2058493715041855961597675854703027748560
2125595197641160232726949237522674082
-91174646895192090369255498443116494294
37166544850292811592
71678611417428007766914868784999083382
48910832741430484538
1500199366973210272842949702439895865239
-6712746161735603089
4957299159894754918996336029974186368782
-504698773375714988974657525082034869092
74687632375302151250
32088384120348922634
128075773217623425145
8736820820091687880900101755213120685609
6331766874380534897247097761853477251049
38959451678975820386195808530206201
3340345427036878612149504
2856057566809253781360799998503516443024
2363055875204132925230504769313303196025
1332159305157361348833340559712
254156186536421863167595221359313168361
